ID	Name	Designator	Footprint	Quantity	Manufacturer Part	Manufacturer	Supplier	Supplier Part	Price	LCSC Assembly	Paste Type	JLCPCB SMD	JLCPCB Part Class
"1"	"22uF"	"C1"	"C0603"	"1"	"CL10A226MQ8NRNC"	"SAMSUNG"	"LCSC"	"C59461"	"0.0122"	"Yes"	"base"	"Yes"	""
"2"	"100nF"	"C2"	"C0402"	"1"	"CL05B104KO5NNNC"	"SAMSUNG"	"LCSC"	"C1525"	"0.0011"	"Yes"	"base"	"Yes"	""
"3"	"100uF"	"C3"	"CAP-SMD_BD5.0-L5.3-W5.3-RD"	"1"	"VE-101M1ATR-0505"	"LELON"	"LCSC"	"C134722"	"0.0564"	"Yes"	"expand"	"Yes"	""
"4"	"470uF"	"C4"	"CAP-TH_BD10.0-P5.00-D1.0-FD"	"1"	"ERS1HM471G20OT"	"AISHI"	"LCSC"	"C106666"	"0.1955"	"Yes"	"expand"	""	""
"5"	"4.7uF"	"C5,C6"	"C0402"	"2"	"CL05A475MP5NRNC"	"SAMSUNG"	"LCSC"	"C23733"	"0.0095"	"Yes"	"base"	"Yes"	""
"6"	"1uF"	"C7,C8,C10"	"C0402"	"3"	"CL05A105KA5NQNC"	"SAMSUNG"	"LCSC"	"C52923"	"0.0042"	"Yes"	"base"	"Yes"	""
"7"	"10nF"	"C9"	"C0402"	"1"	"CL05B103KB5NNNC"	"SAMSUNG"	"LCSC"	"C15195"	"0.0013"	"Yes"	"base"	"Yes"	""
"8"	"0.1pF"	"C11"	"C0402"	"1"	"RF15N0R1B500CT"	"Walsin Tech Corp"	"LCSC"	"C384683"	"0.0072"	""	""	""	"Extended Part"
"9"	"XHB-3A"	"CN1,CN2,CN4"	"CONN-TH_XHB-3A"	"3"	"XHB-3A"	"BOOMELE"	"LCSC"	"C68817"	"0.014"	""	""	""	""
"10"	"X8821WV-06K-N0SN"	"CN5"	"CONN-TH_6P-P2.50_X8821WV-06K-N0SN"	"1"	"X8821WV-06K-N0SN"	"XKB Enterprise"	"LCSC"	"C388751"	"0.0361"	"Yes"	"expand"	""	""
"11"	"1N4004F"	"D1,D3"	"SMAF_L3.5-W2.6-LS4.7-RD"	"2"	"1N4004F"	"SK"	"LCSC"	"C122842"	"0.0091"	"Yes"	"expand"	"Yes"	""
"12"	"SK34_C65008"	"D2"	"SMA_L4.3-W2.6-LS5.2-RD"	"1"	"SK34"	"MDD"	"LCSC"	"C65008"	"0.0838"	"Yes"	"expand"	"Yes"	""
"13"	"FTR30-500"	"F1"	"FUSE-TH_L14.0-W4.5-P10.0-D1.2"	"1"	"FTR30-500"	"FTR"	"LCSC"	"C693580"	"0.2133"	"Yes"	"expand"	""	""
"14"	"220S-2*3P H=8.5MM Ytype Gold-plated"	"H1"	"HDR-TH_6P-P2.54-V-R2-C3-S2.54"	"1"	"220S-2*3P H=8.5MM Ytype Gold-plated"	"Ckmtw"	"LCSC"	"C124421"	"0.1011"	"Yes"	"expand"	""	""
"15"	"210S-2*4P L=11.6MMGold-plated black"	"H2"	"HDR-TH_8P-P2.54-V-R2-C4-S2.54"	"1"	"210S-2*4P L=11.6MMGold-plated black"	"Ckmtw"	"LCSC"	"C124386"	"0.0521"	"Yes"	"expand"	""	""
"16"	"68uH"	"L1"	"IND-SMD_L11.5-W10.0_SMMS1040"	"1"	"SMMS1040-680MT"	"ShunXiang Connaught Elec"	"LCSC"	"C286354"	"0.3156"	"Yes"	"expand"	""	""
"17"	"WJ126V-5.0-2P"	"P1,P2"	"CONN-TH_WJ126V-5.0-2P"	"2"	"WJ126V-5.0-2P"	"ReliaPro"	"LCSC"	"C8404"	"0.0716"	"Yes"	"expand"	""	""
"18"	"AON6884"	"Q1"	"DFN-8_L5.5-W5.2-P1.27-LS6.0-BL-EP2"	"1"	"AON6884"	"Alpha & Omega Semicon"	"LCSC"	"C125872"	"0.9468"	"Yes"	"expand"	"Yes"	""
"19"	"10K"	"R1,R3,R8,R10,R11,R12"	"R0402"	"6"	"0402WGF1002TCE"	"UniOhm"	"LCSC"	"C25744"	"0.0008"	"Yes"	"base"	"Yes"	""
"20"	"4.7K"	"R2"	"R0805"	"1"	"0805W8F4701T5E"	"UniOhm"	"LCSC"	"C17673"	"0.0031"	"Yes"	"base"	"Yes"	""
"21"	"15K"	"R4"	"R0402"	"1"	"0402WGF1502TCE"	"UniOhm"	"LCSC"	"C25756"	"0.0009"	"Yes"	"base"	"Yes"	""
"22"	"100"	"R5,R6"	"R0402"	"2"	"0402WGF1000TCE"	"UniOhm"	"LCSC"	"C25076"	"0.0008"	"Yes"	"base"	"Yes"	""
"23"	"50K"	"R7,R9"	"R0402"	"2"	"RTT025002FTH"	"RALEC"	"LCSC"	"C166559"	"0.0012"	""	""	""	""
"24"	"Rotary switch"	"SW1"	"SW7-13.75X11.7X6.5MM"	"1"	"Rotary switch"	""	""	""	""	""	""	""	""
"25"	"ESP32-WROVER-B(16MB)"	"U1"	"WIFIM-SMD_39P-L31.4-W18.0-P1.27"	"1"	"ESP32-WROVER-B(16MB)"	"Espressif Systems"	"LCSC"	"C529591"	"5.9334"	""	"expand"	""	""
"26"	"XL1509-5.0E1"	"U2"	"SOIC-8_L5.0-W4.0-P1.27-LS6.0-BL"	"1"	"XL1509-5.0E1"	"XLSEMI"	"LCSC"	"C61063"	"0.3"	"Yes"	"base"	"Yes"	""
"27"	"DG500-5.08-02P-14-00A(H)"	"U4"	"CONN-TH_DG500-5.08-02P-14-00A-H"	"1"	"DG500-5.08-02P-14-00A(H)"	"DEGSON"	"LCSC"	"C691859"	"0.3201"	"Yes"	"expand"	""	""
"28"	"2.42 OLED (SSD1309, I2C)"	"U5"	"2.42_OLED_I2C"	"1"	"MONOCHROME 2.42"" 128X64 OLED SSD1309"	""	""	""	""	""	""	""	""
"29"	"AMS1117-3.3"	"U6"	"SOT-223-3_L6.5-W3.4-P2.30-LS7.0-BR"	"1"	"AMS1117-3.3"	"AMS"	"LCSC"	"C6186"	"0.1454"	"Yes"	"base"	"Yes"	""
